{
    "version": "0.2",
    "language": "en_US",
    "words": [
        "gettext",
        "ngettext",
        "pgettext",
        "vfunc",
        "activatable",
        "bluez",
        "dconf",
        "failable",
        "freedesktop",
        "keyfiles",
        "mozjs",
        "paren",
        "reentrancy",
        "sandboxing",
        "skillset",
        "subclassing",
        "toolkits",
        "uncollectable",
        "gobject",
        "gtype",
        "gvalue",
        "gvariant",
        "prefs",
        "gmenu",
        "gtask",
        "gaction",
        "dbus",
        "gdbus",
        "gfile",
        "unref"
    ],
    "flagWords": [
        "hte"
    ],
    "ignorePaths": [
        "docs/extensions/upgrading/gnome-shell-*.md",
        "docs/guides/gtk/**/*.md",
        "docs/public/**/*"
    ],
    "patterns": [
        {
            "name": "htmlCode",
            "pattern": "/<code>[^<]*<\\/code>/gi"
        },
        {
            "name": "htmlMiscellaneous",
            "pattern": "/<[^>]*>/g"
        },
        {
            "name": "markdownCodeBlock",
            "pattern": "/```[\\s\\S]*?```(?=\\n|$)/gi"
        },
        {
            "name": "markdownInlineCode",
            "pattern": "/`[^`]*`/gi"
        },
        {
            "name": "nounAbbreviation",
            "pattern": "/\\b([A-Z]+)\\b/g"
        },
        {
            "name": "nounLibrary",
            "pattern": "/\\b(lib[a-z]+)\\b/g"
        },
        {
            "name": "nounProper",
            "pattern": "/(?:\\s*\\b([A-Z][a-z]+)\\b)+/g"
        },
        {
            "name": "vitepressSnippet",
            "pattern": "/<<< @.*/gi"
        }
    ],
    "languageSettings": [
        {
            "languageId": "markdown",
            "ignoreRegExpList": [
                "htmlCode",
                "htmlMiscellaneous",
                "markdownCodeBlock",
                "markdownInlineCode",
                "nounAbbreviation",
                "nounLibrary",
                "nounProper",
                "vitepressSnippet"
            ]
        }
    ]
}
